%YAML 1.1
%TAG !u! tag:unity3d.com,2011:
--- !u!29 &1
OcclusionCullingSettings:
  m_ObjectHideFlags: 0
  serializedVersion: 2
  m_OcclusionBakeSettings:
    smallestOccluder: 5
    smallestHole: 0.25
    backfaceThreshold: 100
  m_SceneGUID: 00000000000000000000000000000000
  m_OcclusionCullingData: {fileID: 0}
--- !u!104 &2
RenderSettings:
  m_ObjectHideFlags: 0
  serializedVersion: 9
  m_Fog: 0
  m_FogColor: {r: 0.5, g: 0.5, b: 0.5, a: 1}
  m_FogMode: 3
  m_FogDensity: 0.01
  m_LinearFogStart: 0
  m_LinearFogEnd: 300
  m_AmbientSkyColor: {r: 0.212, g: 0.227, b: 0.259, a: 1}
  m_AmbientEquatorColor: {r: 0.114, g: 0.125, b: 0.133, a: 1}
  m_AmbientGroundColor: {r: 0.047, g: 0.043, b: 0.035, a: 1}
  m_AmbientIntensity: 1
  m_AmbientMode: 0
  m_SubtractiveShadowColor: {r: 0.42, g: 0.478, b: 0.627, a: 1}
  m_SkyboxMaterial: {fileID: 10304, guid: 0000000000000000f000000000000000, type: 0}
  m_HaloStrength: 0.5
  m_FlareStrength: 1
  m_FlareFadeSpeed: 3
  m_HaloTexture: {fileID: 0}
  m_SpotCookie: {fileID: 10001, guid: 0000000000000000e000000000000000, type: 0}
  m_DefaultReflectionMode: 0
  m_DefaultReflectionResolution: 128
  m_ReflectionBounces: 1
  m_ReflectionIntensity: 1
  m_CustomReflection: {fileID: 0}
  m_Sun: {fileID: 0}
  m_IndirectSpecularColor: {r: 0.44657898, g: 0.4964133, b: 0.5748178, a: 1}
  m_UseRadianceAmbientProbe: 0
--- !u!157 &3
LightmapSettings:
  m_ObjectHideFlags: 0
  serializedVersion: 11
  m_GIWorkflowMode: 0
  m_GISettings:
    serializedVersion: 2
    m_BounceScale: 1
    m_IndirectOutputScale: 1
    m_AlbedoBoost: 1
    m_EnvironmentLightingMode: 0
    m_EnableBakedLightmaps: 1
    m_EnableRealtimeLightmaps: 1
  m_LightmapEditorSettings:
    serializedVersion: 10
    m_Resolution: 2
    m_BakeResolution: 40
    m_AtlasSize: 1024
    m_AO: 0
    m_AOMaxDistance: 1
    m_CompAOExponent: 1
    m_CompAOExponentDirect: 0
    m_Padding: 2
    m_LightmapParameters: {fileID: 0}
    m_LightmapsBakeMode: 1
    m_TextureCompression: 1
    m_FinalGather: 0
    m_FinalGatherFiltering: 1
    m_FinalGatherRayCount: 256
    m_ReflectionCompression: 2
    m_MixedBakeMode: 2
    m_BakeBackend: 0
    m_PVRSampling: 1
    m_PVRDirectSampleCount: 32
    m_PVRSampleCount: 500
    m_PVRBounces: 2
    m_PVRFilterTypeDirect: 0
    m_PVRFilterTypeIndirect: 0
    m_PVRFilterTypeAO: 0
    m_PVRFilteringMode: 1
    m_PVRCulling: 1
    m_PVRFilteringGaussRadiusDirect: 1
    m_PVRFilteringGaussRadiusIndirect: 5
    m_PVRFilteringGaussRadiusAO: 2
    m_PVRFilteringAtrousPositionSigmaDirect: 0.5
    m_PVRFilteringAtrousPositionSigmaIndirect: 2
    m_PVRFilteringAtrousPositionSigmaAO: 1
    m_ShowResolutionOverlay: 1
  m_LightingDataAsset: {fileID: 0}
  m_UseShadowmask: 1
--- !u!196 &4
NavMeshSettings:
  serializedVersion: 2
  m_ObjectHideFlags: 0
  m_BuildSettings:
    serializedVersion: 2
    agentTypeID: 0
    agentRadius: 0.5
    agentHeight: 2
    agentSlope: 45
    agentClimb: 0.4
    ledgeDropHeight: 0
    maxJumpAcrossDistance: 0
    minRegionArea: 2
    manualCellSize: 0
    cellSize: 0.16666667
    manualTileSize: 0
    tileSize: 256
    accuratePlacement: 0
    debug:
      m_Flags: 0
  m_NavMeshData: {fileID: 0}
--- !u!1001 &12553747
PrefabInstance:
  m_ObjectHideFlags: 0
  serializedVersion: 2
  m_Modification:
    m_TransformParent: {fileID: 0}
    m_Modifications:
    - target: {fileID: 1416725914002790, guid: 0948df15364e949f18704d765ac9b1ca, type: 3}
      propertyPath: m_Name
      value: Marker (2)
      objectReference: {fileID: 0}
    - target: {fileID: 1416725914002790, guid: 0948df15364e949f18704d765ac9b1ca, type: 3}
      propertyPath: m_TagString
      value: Marker
      objectReference: {fileID: 0}
    - target: {fileID: 4174730154143866, guid: 0948df15364e949f18704d765ac9b1ca, type: 3}
      propertyPath: m_LocalPosition.x
      value: 10
      objectReference: {fileID: 0}
    - target: {fileID: 4174730154143866, guid: 0948df15364e949f18704d765ac9b1ca, type: 3}
      propertyPath: m_LocalPosition.y
      value: 0
      objectReference: {fileID: 0}
    - target: {fileID: 4174730154143866, guid: 0948df15364e949f18704d765ac9b1ca, type: 3}
      propertyPath: m_LocalPosition.z
      value: 10
      objectReference: {fileID: 0}
    - target: {fileID: 4174730154143866, guid: 0948df15364e949f18704d765ac9b1ca, type: 3}
      propertyPath: m_LocalRotation.x
      value: -0
      objectReference: {fileID: 0}
    - target: {fileID: 4174730154143866, guid: 0948df15364e949f18704d765ac9b1ca, type: 3}
      propertyPath: m_LocalRotation.y
      value: -0
      objectReference: {fileID: 0}
    - target: {fileID: 4174730154143866, guid: 0948df15364e949f18704d765ac9b1ca, type: 3}
      propertyPath: m_LocalRotation.z
      value: -0
      objectReference: {fileID: 0}
    - target: {fileID: 4174730154143866, guid: 0948df15364e949f18704d765ac9b1ca, type: 3}
      propertyPath: m_LocalRotation.w
      value: 1
      objectReference: {fileID: 0}
    - target: {fileID: 4174730154143866, guid: 0948df15364e949f18704d765ac9b1ca, type: 3}
      propertyPath: m_RootOrder
      value: 6
      objectReference: {fileID: 0}
    m_RemovedComponents: []
  m_SourcePrefab: {fileID: 100100000, guid: 0948df15364e949f18704d765ac9b1ca, type: 3}
--- !u!1001 &357188406
PrefabInstance:
  m_ObjectHideFlags: 0
  serializedVersion: 2
  m_Modification:
    m_TransformParent: {fileID: 0}
    m_Modifications:
    - target: {fileID: 1837268391866166, guid: 3060152e8537e4838be7f7618bfd36af, type: 3}
      propertyPath: m_Name
      value: Flock (1)
      objectReference: {fileID: 0}
    - target: {fileID: 1837268391866166, guid: 3060152e8537e4838be7f7618bfd36af, type: 3}
      propertyPath: m_IsActive
      value: 1
      objectReference: {fileID: 0}
    - target: {fileID: 4435278438621404, guid: 3060152e8537e4838be7f7618bfd36af, type: 3}
      propertyPath: m_LocalPosition.x
      value: 0
      objectReference: {fileID: 0}
    - target: {fileID: 4435278438621404, guid: 3060152e8537e4838be7f7618bfd36af, type: 3}
      propertyPath: m_LocalPosition.y
      value: 0
      objectReference: {fileID: 0}
    - target: {fileID: 4435278438621404, guid: 3060152e8537e4838be7f7618bfd36af, type: 3}
      propertyPath: m_LocalPosition.z
      value: -2
      objectReference: {fileID: 0}
    - target: {fileID: 4435278438621404, guid: 3060152e8537e4838be7f7618bfd36af, type: 3}
      propertyPath: m_LocalRotation.x
      value: -0
      objectReference: {fileID: 0}
    - target: {fileID: 4435278438621404, guid: 3060152e8537e4838be7f7618bfd36af, type: 3}
      propertyPath: m_LocalRotation.y
      value: -0
      objectReference: {fileID: 0}
    - target: {fileID: 4435278438621404, guid: 3060152e8537e4838be7f7618bfd36af, type: 3}
      propertyPath: m_LocalRotation.z
      value: -0
      objectReference: {fileID: 0}
    - target: {fileID: 4435278438621404, guid: 3060152e8537e4838be7f7618bfd36af, type: 3}
      propertyPath: m_LocalRotation.w
      value: 1
      objectReference: {fileID: 0}
    - target: {fileID: 4435278438621404, guid: 3060152e8537e4838be7f7618bfd36af, type: 3}
      propertyPath: m_RootOrder
      value: 9
      objectReference: {fileID: 0}
    - target: {fileID: 114738208757391804, guid: 3060152e8537e4838be7f7618bfd36af,
        type: 3}
      propertyPath: CohesionStrength
      value: 1.2
      objectReference: {fileID: 0}
    - target: {fileID: 114738208757391804, guid: 3060152e8537e4838be7f7618bfd36af,
        type: 3}
      propertyPath: SeparationDistance
      value: 1.5
      objectReference: {fileID: 0}
    m_RemovedComponents: []
  m_SourcePrefab: {fileID: 100100000, guid: 3060152e8537e4838be7f7618bfd36af, type: 3}
--- !u!1 &414173004
GameObject:
  m_ObjectHideFlags: 0
  m_CorrespondingSourceObject: {fileID: 0}
  m_PrefabInstance: {fileID: 0}
  m_PrefabAsset: {fileID: 0}
  serializedVersion: 6
  m_Component:
  - component: {fileID: 414173008}
  - component: {fileID: 414173007}
  - component: {fileID: 414173006}
  - component: {fileID: 414173005}
  m_Layer: 0
  m_Name: Plane
  m_TagString: Untagged
  m_Icon: {fileID: 0}
  m_NavMeshLayer: 0
  m_StaticEditorFlags: 0
  m_IsActive: 1
--- !u!23 &414173005
MeshRenderer:
  m_ObjectHideFlags: 0
  m_CorrespondingSourceObject: {fileID: 0}
  m_PrefabInstance: {fileID: 0}
  m_PrefabAsset: {fileID: 0}
  m_GameObject: {fileID: 414173004}
  m_Enabled: 1
  m_CastShadows: 1
  m_ReceiveShadows: 1
  m_DynamicOccludee: 1
  m_MotionVectors: 1
  m_LightProbeUsage: 1
  m_ReflectionProbeUsage: 1
  m_RenderingLayerMask: 1
  m_RendererPriority: 0
  m_Materials:
  - {fileID: 2100000, guid: 6650bf9a2ac604552b524b3e77dde3b1, type: 2}
  m_StaticBatchInfo:
    firstSubMesh: 0
    subMeshCount: 0
  m_StaticBatchRoot: {fileID: 0}
  m_ProbeAnchor: {fileID: 0}
  m_LightProbeVolumeOverride: {fileID: 0}
  m_ScaleInLightmap: 1
  m_PreserveUVs: 1
  m_IgnoreNormalsForChartDetection: 0
  m_ImportantGI: 0
  m_StitchLightmapSeams: 0
  m_SelectedEditorRenderState: 3
  m_MinimumChartSize: 4
  m_AutoUVMaxDistance: 0.5
  m_AutoUVMaxAngle: 89
  m_LightmapParameters: {fileID: 0}
  m_SortingLayerID: 0
  m_SortingLayer: 0
  m_SortingOrder: 0
--- !u!64 &414173006
MeshCollider:
  m_ObjectHideFlags: 0
  m_CorrespondingSourceObject: {fileID: 0}
  m_PrefabInstance: {fileID: 0}
  m_PrefabAsset: {fileID: 0}
  m_GameObject: {fileID: 414173004}
  m_Material: {fileID: 0}
  m_IsTrigger: 0
  m_Enabled: 1
  serializedVersion: 3
  m_Convex: 0
  m_CookingOptions: 14
  m_Mesh: {fileID: 10209, guid: 0000000000000000e000000000000000, type: 0}
--- !u!33 &414173007
MeshFilter:
  m_ObjectHideFlags: 0
  m_CorrespondingSourceObject: {fileID: 0}
  m_PrefabInstance: {fileID: 0}
  m_PrefabAsset: {fileID: 0}
  m_GameObject: {fileID: 414173004}
  m_Mesh: {fileID: 10209, guid: 0000000000000000e000000000000000, type: 0}
--- !u!4 &414173008
Transform:
  m_ObjectHideFlags: 0
  m_CorrespondingSourceObject: {fileID: 0}
  m_PrefabInstance: {fileID: 0}
  m_PrefabAsset: {fileID: 0}
  m_GameObject: {fileID: 414173004}
  m_LocalRotation: {x: 0, y: 0, z: 0, w: 1}
  m_LocalPosition: {x: 0, y: 0, z: 0}
  m_LocalScale: {x: 10, y: 1, z: 10}
  m_Children: []
  m_Father: {fileID: 0}
  m_RootOrder: 2
  m_LocalEulerAnglesHint: {x: 0, y: 0, z: 0}
--- !u!1 &447045908
GameObject:
  m_ObjectHideFlags: 0
  m_CorrespondingSourceObject: {fileID: 0}
  m_PrefabInstance: {fileID: 0}
  m_PrefabAsset: {fileID: 0}
  serializedVersion: 6
  m_Component:
  - component: {fileID: 447045913}
  - component: {fileID: 447045912}
  - component: {fileID: 447045911}
  - component: {fileID: 447045910}
  - component: {fileID: 447045909}
  m_Layer: 0
  m_Name: Main Camera
  m_TagString: MainCamera
  m_Icon: {fileID: 0}
  m_NavMeshLayer: 0
  m_StaticEditorFlags: 0
  m_IsActive: 1
--- !u!81 &447045909
AudioListener:
  m_ObjectHideFlags: 0
  m_CorrespondingSourceObject: {fileID: 0}
  m_PrefabInstance: {fileID: 0}
  m_PrefabAsset: {fileID: 0}
  m_GameObject: {fileID: 447045908}
  m_Enabled: 1
--- !u!124 &447045910
Behaviour:
  m_ObjectHideFlags: 0
  m_CorrespondingSourceObject: {fileID: 0}
  m_PrefabInstance: {fileID: 0}
  m_PrefabAsset: {fileID: 0}
  m_GameObject: {fileID: 447045908}
  m_Enabled: 1
--- !u!92 &447045911
Behaviour:
  m_ObjectHideFlags: 0
  m_CorrespondingSourceObject: {fileID: 0}
  m_PrefabInstance: {fileID: 0}
  m_PrefabAsset: {fileID: 0}
  m_GameObject: {fileID: 447045908}
  m_Enabled: 1
--- !u!20 &447045912
Camera:
  m_ObjectHideFlags: 0
  m_CorrespondingSourceObject: {fileID: 0}
  m_PrefabInstance: {fileID: 0}
  m_PrefabAsset: {fileID: 0}
  m_GameObject: {fileID: 447045908}
  m_Enabled: 1
  serializedVersion: 2
  m_ClearFlags: 1
  m_BackGroundColor: {r: 0.19215687, g: 0.3019608, b: 0.4745098, a: 0}
  m_projectionMatrixMode: 1
  m_SensorSize: {x: 36, y: 24}
  m_LensShift: {x: 0, y: 0}
  m_GateFitMode: 2
  m_FocalLength: 50
  m_NormalizedViewPortRect:
    serializedVersion: 2
    x: 0
    y: 0
    width: 1
    height: 1
  near clip plane: 0.3
  far clip plane: 1000
  field of view: 60
  orthographic: 0
  orthographic size: 5
  m_Depth: -1
  m_CullingMask:
    serializedVersion: 2
    m_Bits: 4294967295
  m_RenderingPath: -1
  m_TargetTexture: {fileID: 0}
  m_TargetDisplay: 0
  m_TargetEye: 3
  m_HDR: 1
  m_AllowMSAA: 1
  m_AllowDynamicResolution: 0
  m_ForceIntoRT: 0
  m_OcclusionCulling: 1
  m_StereoConvergence: 10
  m_StereoSeparation: 0.022
--- !u!4 &447045913
Transform:
  m_ObjectHideFlags: 0
  m_CorrespondingSourceObject: {fileID: 0}
  m_PrefabInstance: {fileID: 0}
  m_PrefabAsset: {fileID: 0}
  m_GameObject: {fileID: 447045908}
  m_LocalRotation: {x: 0.7071068, y: 0, z: 0, w: 0.7071068}
  m_LocalPosition: {x: 0, y: 22.27, z: 0}
  m_LocalScale: {x: 1, y: 1, z: 1}
  m_Children: []
  m_Father: {fileID: 0}
  m_RootOrder: 0
  m_LocalEulerAnglesHint: {x: 90, y: 0, z: 0}
--- !u!1001 &484844350
PrefabInstance:
  m_ObjectHideFlags: 0
  serializedVersion: 2
  m_Modification:
    m_TransformParent: {fileID: 0}
    m_Modifications:
    - target: {fileID: 1837268391866166, guid: 3060152e8537e4838be7f7618bfd36af, type: 3}
      propertyPath: m_Name
      value: Flock (8)
      objectReference: {fileID: 0}
    - target: {fileID: 1837268391866166, guid: 3060152e8537e4838be7f7618bfd36af, type: 3}
      propertyPath: m_IsActive
      value: 1
      objectReference: {fileID: 0}
    - target: {fileID: 4435278438621404, guid: 3060152e8537e4838be7f7618bfd36af, type: 3}
      propertyPath: m_LocalPosition.x
      value: 0
      objectReference: {fileID: 0}
    - target: {fileID: 4435278438621404, guid: 3060152e8537e4838be7f7618bfd36af, type: 3}
      propertyPath: m_LocalPosition.y
      value: 0
      objectReference: {fileID: 0}
    - target: {fileID: 4435278438621404, guid: 3060152e8537e4838be7f7618bfd36af, type: 3}
      propertyPath: m_LocalPosition.z
      value: -6
      objectReference: {fileID: 0}
    - target: {fileID: 4435278438621404, guid: 3060152e8537e4838be7f7618bfd36af, type: 3}
      propertyPath: m_LocalRotation.x
      value: -0
      objectReference: {fileID: 0}
    - target: {fileID: 4435278438621404, guid: 3060152e8537e4838be7f7618bfd36af, type: 3}
      propertyPath: m_LocalRotation.y
      value: -0
      objectReference: {fileID: 0}
    - target: {fileID: 4435278438621404, guid: 3060152e8537e4838be7f7618bfd36af, type: 3}
      propertyPath: m_LocalRotation.z
      value: -0
      objectReference: {fileID: 0}
    - target: {fileID: 4435278438621404, guid: 3060152e8537e4838be7f7618bfd36af, type: 3}
      propertyPath: m_LocalRotation.w
      value: 1
      objectReference: {fileID: 0}
    - target: {fileID: 4435278438621404, guid: 3060152e8537e4838be7f7618bfd36af, type: 3}
      propertyPath: m_RootOrder
      value: 16
      objectReference: {fileID: 0}
    - target: {fileID: 114738208757391804, guid: 3060152e8537e4838be7f7618bfd36af,
        type: 3}
      propertyPath: CohesionStrength
      value: 1.2
      objectReference: {fileID: 0}
    - target: {fileID: 114738208757391804, guid: 3060152e8537e4838be7f7618bfd36af,
        type: 3}
      propertyPath: SeparationDistance
      value: 1.5
      objectReference: {fileID: 0}
    m_RemovedComponents: []
  m_SourcePrefab: {fileID: 100100000, guid: 3060152e8537e4838be7f7618bfd36af, type: 3}
--- !u!1001 &559470403
PrefabInstance:
  m_ObjectHideFlags: 0
  serializedVersion: 2
  m_Modification:
    m_TransformParent: {fileID: 0}
    m_Modifications:
    - target: {fileID: 1837268391866166, guid: 3060152e8537e4838be7f7618bfd36af, type: 3}
      propertyPath: m_Name
      value: Flock (7)
      objectReference: {fileID: 0}
    - target: {fileID: 1837268391866166, guid: 3060152e8537e4838be7f7618bfd36af, type: 3}
      propertyPath: m_IsActive
      value: 1
      objectReference: {fileID: 0}
    - target: {fileID: 4435278438621404, guid: 3060152e8537e4838be7f7618bfd36af, type: 3}
      propertyPath: m_LocalPosition.x
      value: 2
      objectReference: {fileID: 0}
    - target: {fileID: 4435278438621404, guid: 3060152e8537e4838be7f7618bfd36af, type: 3}
      propertyPath: m_LocalPosition.y
      value: 0
      objectReference: {fileID: 0}
    - target: {fileID: 4435278438621404, guid: 3060152e8537e4838be7f7618bfd36af, type: 3}
      propertyPath: m_LocalPosition.z
      value: -6
      objectReference: {fileID: 0}
    - target: {fileID: 4435278438621404, guid: 3060152e8537e4838be7f7618bfd36af, type: 3}
      propertyPath: m_LocalRotation.x
      value: -0
      objectReference: {fileID: 0}
    - target: {fileID: 4435278438621404, guid: 3060152e8537e4838be7f7618bfd36af, type: 3}
      propertyPath: m_LocalRotation.y
      value: -0
      objectReference: {fileID: 0}
    - target: {fileID: 4435278438621404, guid: 3060152e8537e4838be7f7618bfd36af, type: 3}
      propertyPath: m_LocalRotation.z
      value: -0
      objectReference: {fileID: 0}
    - target: {fileID: 4435278438621404, guid: 3060152e8537e4838be7f7618bfd36af, type: 3}
      propertyPath: m_LocalRotation.w
      value: 1
      objectReference: {fileID: 0}
    - target: {fileID: 4435278438621404, guid: 3060152e8537e4838be7f7618bfd36af, type: 3}
      propertyPath: m_RootOrder
      value: 15
      objectReference: {fileID: 0}
    - target: {fileID: 114738208757391804, guid: 3060152e8537e4838be7f7618bfd36af,
        type: 3}
      propertyPath: CohesionStrength
      value: 1.2
      objectReference: {fileID: 0}
    - target: {fileID: 114738208757391804, guid: 3060152e8537e4838be7f7618bfd36af,
        type: 3}
      propertyPath: SeparationDistance
      value: 1.5
      objectReference: {fileID: 0}
    m_RemovedComponents: []
  m_SourcePrefab: {fileID: 100100000, guid: 3060152e8537e4838be7f7618bfd36af, type: 3}
--- !u!1001 &910771761
PrefabInstance:
  m_ObjectHideFlags: 0
  serializedVersion: 2
  m_Modification:
    m_TransformParent: {fileID: 0}
    m_Modifications:
    - target: {fileID: 1837268391866166, guid: 3060152e8537e4838be7f7618bfd36af, type: 3}
      propertyPath: m_Name
      value: Flock (6)
      objectReference: {fileID: 0}
    - target: {fileID: 4435278438621404, guid: 3060152e8537e4838be7f7618bfd36af, type: 3}
      propertyPath: m_LocalPosition.x
      value: -2
      objectReference: {fileID: 0}
    - target: {fileID: 4435278438621404, guid: 3060152e8537e4838be7f7618bfd36af, type: 3}
      propertyPath: m_LocalPosition.y
      value: 0
      objectReference: {fileID: 0}
    - target: {fileID: 4435278438621404, guid: 3060152e8537e4838be7f7618bfd36af, type: 3}
      propertyPath: m_LocalPosition.z
      value: -6
      objectReference: {fileID: 0}
    - target: {fileID: 4435278438621404, guid: 3060152e8537e4838be7f7618bfd36af, type: 3}
      propertyPath: m_LocalRotation.x
      value: -0
      objectReference: {fileID: 0}
    - target: {fileID: 4435278438621404, guid: 3060152e8537e4838be7f7618bfd36af, type: 3}
      propertyPath: m_LocalRotation.y
      value: -0
      objectReference: {fileID: 0}
    - target: {fileID: 4435278438621404, guid: 3060152e8537e4838be7f7618bfd36af, type: 3}
      propertyPath: m_LocalRotation.z
      value: -0
      objectReference: {fileID: 0}
    - target: {fileID: 4435278438621404, guid: 3060152e8537e4838be7f7618bfd36af, type: 3}
      propertyPath: m_LocalRotation.w
      value: 1
      objectReference: {fileID: 0}
    - target: {fileID: 4435278438621404, guid: 3060152e8537e4838be7f7618bfd36af, type: 3}
      propertyPath: m_RootOrder
      value: 14
      objectReference: {fileID: 0}
    - target: {fileID: 114738208757391804, guid: 3060152e8537e4838be7f7618bfd36af,
        type: 3}
      propertyPath: CohesionStrength
      value: 1.2
      objectReference: {fileID: 0}
    - target: {fileID: 114738208757391804, guid: 3060152e8537e4838be7f7618bfd36af,
        type: 3}
      propertyPath: SeparationDistance
      value: 1.5
      objectReference: {fileID: 0}
    m_RemovedComponents: []
  m_SourcePrefab: {fileID: 100100000, guid: 3060152e8537e4838be7f7618bfd36af, type: 3}
--- !u!1001 &1015632720
PrefabInstance:
  m_ObjectHideFlags: 0
  serializedVersion: 2
  m_Modification:
    m_TransformParent: {fileID: 0}
    m_Modifications:
    - target: {fileID: 1837268391866166, guid: 3060152e8537e4838be7f7618bfd36af, type: 3}
      propertyPath: m_Name
      value: Flock (3)
      objectReference: {fileID: 0}
    - target: {fileID: 4435278438621404, guid: 3060152e8537e4838be7f7618bfd36af, type: 3}
      propertyPath: m_LocalPosition.x
      value: -2
      objectReference: {fileID: 0}
    - target: {fileID: 4435278438621404, guid: 3060152e8537e4838be7f7618bfd36af, type: 3}
      propertyPath: m_LocalPosition.y
      value: 0
      objectReference: {fileID: 0}
    - target: {fileID: 4435278438621404, guid: 3060152e8537e4838be7f7618bfd36af, type: 3}
      propertyPath: m_LocalPosition.z
      value: -4
      objectReference: {fileID: 0}
    - target: {fileID: 4435278438621404, guid: 3060152e8537e4838be7f7618bfd36af, type: 3}
      propertyPath: m_LocalRotation.x
      value: -0
      objectReference: {fileID: 0}
    - target: {fileID: 4435278438621404, guid: 3060152e8537e4838be7f7618bfd36af, type: 3}
      propertyPath: m_LocalRotation.y
      value: -0
      objectReference: {fileID: 0}
    - target: {fileID: 4435278438621404, guid: 3060152e8537e4838be7f7618bfd36af, type: 3}
      propertyPath: m_LocalRotation.z
      value: -0
      objectReference: {fileID: 0}
    - target: {fileID: 4435278438621404, guid: 3060152e8537e4838be7f7618bfd36af, type: 3}
      propertyPath: m_LocalRotation.w
      value: 1
      objectReference: {fileID: 0}
    - target: {fileID: 4435278438621404, guid: 3060152e8537e4838be7f7618bfd36af, type: 3}
      propertyPath: m_RootOrder
      value: 11
      objectReference: {fileID: 0}
    - target: {fileID: 114738208757391804, guid: 3060152e8537e4838be7f7618bfd36af,
        type: 3}
      propertyPath: CohesionStrength
      value: 1.2
      objectReference: {fileID: 0}
    - target: {fileID: 114738208757391804, guid: 3060152e8537e4838be7f7618bfd36af,
        type: 3}
      propertyPath: SeparationDistance
      value: 1.5
      objectReference: {fileID: 0}
    m_RemovedComponents: []
  m_SourcePrefab: {fileID: 100100000, guid: 3060152e8537e4838be7f7618bfd36af, type: 3}
--- !u!1001 &1244463419
PrefabInstance:
  m_ObjectHideFlags: 0
  serializedVersion: 2
  m_Modification:
    m_TransformParent: {fileID: 0}
    m_Modifications:
    - target: {fileID: 1837268391866166, guid: 3060152e8537e4838be7f7618bfd36af, type: 3}
      propertyPath: m_Name
      value: Flock (2)
      objectReference: {fileID: 0}
    - target: {fileID: 1837268391866166, guid: 3060152e8537e4838be7f7618bfd36af, type: 3}
      propertyPath: m_IsActive
      value: 1
      objectReference: {fileID: 0}
    - target: {fileID: 4435278438621404, guid: 3060152e8537e4838be7f7618bfd36af, type: 3}
      propertyPath: m_LocalPosition.x
      value: 2
      objectReference: {fileID: 0}
    - target: {fileID: 4435278438621404, guid: 3060152e8537e4838be7f7618bfd36af, type: 3}
      propertyPath: m_LocalPosition.y
      value: 0
      objectReference: {fileID: 0}
    - target: {fileID: 4435278438621404, guid: 3060152e8537e4838be7f7618bfd36af, type: 3}
      propertyPath: m_LocalPosition.z
      value: -2
      objectReference: {fileID: 0}
    - target: {fileID: 4435278438621404, guid: 3060152e8537e4838be7f7618bfd36af, type: 3}
      propertyPath: m_LocalRotation.x
      value: -0
      objectReference: {fileID: 0}
    - target: {fileID: 4435278438621404, guid: 3060152e8537e4838be7f7618bfd36af, type: 3}
      propertyPath: m_LocalRotation.y
      value: -0
      objectReference: {fileID: 0}
    - target: {fileID: 4435278438621404, guid: 3060152e8537e4838be7f7618bfd36af, type: 3}
      propertyPath: m_LocalRotation.z
      value: -0
      objectReference: {fileID: 0}
    - target: {fileID: 4435278438621404, guid: 3060152e8537e4838be7f7618bfd36af, type: 3}
      propertyPath: m_LocalRotation.w
      value: 1
      objectReference: {fileID: 0}
    - target: {fileID: 4435278438621404, guid: 3060152e8537e4838be7f7618bfd36af, type: 3}
      propertyPath: m_RootOrder
      value: 10
      objectReference: {fileID: 0}
    - target: {fileID: 114738208757391804, guid: 3060152e8537e4838be7f7618bfd36af,
        type: 3}
      propertyPath: CohesionStrength
      value: 1.2
      objectReference: {fileID: 0}
    - target: {fileID: 114738208757391804, guid: 3060152e8537e4838be7f7618bfd36af,
        type: 3}
      propertyPath: SeparationDistance
      value: 1.5
      objectReference: {fileID: 0}
    m_RemovedComponents: []
  m_SourcePrefab: {fileID: 100100000, guid: 3060152e8537e4838be7f7618bfd36af, type: 3}
--- !u!1001 &1359392784
PrefabInstance:
  m_ObjectHideFlags: 0
  serializedVersion: 2
  m_Modification:
    m_TransformParent: {fileID: 0}
    m_Modifications:
    - target: {fileID: 4435278438621404, guid: 3060152e8537e4838be7f7618bfd36af, type: 3}
      propertyPath: m_LocalPosition.x
      value: -2
      objectReference: {fileID: 0}
    - target: {fileID: 4435278438621404, guid: 3060152e8537e4838be7f7618bfd36af, type: 3}
      propertyPath: m_LocalPosition.y
      value: 0
      objectReference: {fileID: 0}
    - target: {fileID: 4435278438621404, guid: 3060152e8537e4838be7f7618bfd36af, type: 3}
      propertyPath: m_LocalPosition.z
      value: -2
      objectReference: {fileID: 0}
    - target: {fileID: 4435278438621404, guid: 3060152e8537e4838be7f7618bfd36af, type: 3}
      propertyPath: m_LocalRotation.x
      value: -0
      objectReference: {fileID: 0}
    - target: {fileID: 4435278438621404, guid: 3060152e8537e4838be7f7618bfd36af, type: 3}
      propertyPath: m_LocalRotation.y
      value: -0
      objectReference: {fileID: 0}
    - target: {fileID: 4435278438621404, guid: 3060152e8537e4838be7f7618bfd36af, type: 3}
      propertyPath: m_LocalRotation.z
      value: -0
      objectReference: {fileID: 0}
    - target: {fileID: 4435278438621404, guid: 3060152e8537e4838be7f7618bfd36af, type: 3}
      propertyPath: m_LocalRotation.w
      value: 1
      objectReference: {fileID: 0}
    - target: {fileID: 4435278438621404, guid: 3060152e8537e4838be7f7618bfd36af, type: 3}
      propertyPath: m_RootOrder
      value: 8
      objectReference: {fileID: 0}
    - target: {fileID: 114738208757391804, guid: 3060152e8537e4838be7f7618bfd36af,
        type: 3}
      propertyPath: CohesionStrength
      value: 1.2
      objectReference: {fileID: 0}
    - target: {fileID: 114738208757391804, guid: 3060152e8537e4838be7f7618bfd36af,
        type: 3}
      propertyPath: SeparationDistance
      value: 1.5
      objectReference: {fileID: 0}
    m_RemovedComponents: []
  m_SourcePrefab: {fileID: 100100000, guid: 3060152e8537e4838be7f7618bfd36af, type: 3}
--- !u!1 &1448951665
GameObject:
  m_ObjectHideFlags: 0
  m_CorrespondingSourceObject: {fileID: 0}
  m_PrefabInstance: {fileID: 0}
  m_PrefabAsset: {fileID: 0}
  serializedVersion: 6
  m_Component:
  - component: {fileID: 1448951667}
  - component: {fileID: 1448951666}
  m_Layer: 0
  m_Name: Directional Light
  m_TagString: Untagged
  m_Icon: {fileID: 0}
  m_NavMeshLayer: 0
  m_StaticEditorFlags: 0
  m_IsActive: 1
--- !u!108 &1448951666
Light:
  m_ObjectHideFlags: 0
  m_CorrespondingSourceObject: {fileID: 0}
  m_PrefabInstance: {fileID: 0}
  m_PrefabAsset: {fileID: 0}
  m_GameObject: {fileID: 1448951665}
  m_Enabled: 1
  serializedVersion: 8
  m_Type: 1
  m_Color: {r: 1, g: 0.95686275, b: 0.8392157, a: 1}
  m_Intensity: 1
  m_Range: 10
  m_SpotAngle: 30
  m_CookieSize: 10
  m_Shadows:
    m_Type: 2
    m_Resolution: -1
    m_CustomResolution: -1
    m_Strength: 1
    m_Bias: 0.05
    m_NormalBias: 0.4
    m_NearPlane: 0.2
  m_Cookie: {fileID: 0}
  m_DrawHalo: 0
  m_Flare: {fileID: 0}
  m_RenderMode: 0
  m_CullingMask:
    serializedVersion: 2
    m_Bits: 4294967295
  m_Lightmapping: 4
  m_LightShadowCasterMode: 0
  m_AreaSize: {x: 1, y: 1}
  m_BounceIntensity: 1
  m_ColorTemperature: 6570
  m_UseColorTemperature: 0
  m_ShadowRadius: 0
  m_ShadowAngle: 0
--- !u!4 &1448951667
Transform:
  m_ObjectHideFlags: 0
  m_CorrespondingSourceObject: {fileID: 0}
  m_PrefabInstance: {fileID: 0}
  m_PrefabAsset: {fileID: 0}
  m_GameObject: {fileID: 1448951665}
  m_LocalRotation: {x: 0.40821788, y: -0.23456968, z: 0.10938163, w: 0.8754261}
  m_LocalPosition: {x: 0, y: 3, z: 0}
  m_LocalScale: {x: 1, y: 1, z: 1}
  m_Children: []
  m_Father: {fileID: 0}
  m_RootOrder: 1
  m_LocalEulerAnglesHint: {x: 50, y: -30, z: 0}
--- !u!1001 &1479704798
PrefabInstance:
  m_ObjectHideFlags: 0
  serializedVersion: 2
  m_Modification:
    m_TransformParent: {fileID: 0}
    m_Modifications:
    - target: {fileID: 1416725914002790, guid: 0948df15364e949f18704d765ac9b1ca, type: 3}
      propertyPath: m_TagString
      value: Marker
      objectReference: {fileID: 0}
    - target: {fileID: 4174730154143866, guid: 0948df15364e949f18704d765ac9b1ca, type: 3}
      propertyPath: m_LocalPosition.x
      value: -10
      objectReference: {fileID: 0}
    - target: {fileID: 4174730154143866, guid: 0948df15364e949f18704d765ac9b1ca, type: 3}
      propertyPath: m_LocalPosition.y
      value: 0
      objectReference: {fileID: 0}
    - target: {fileID: 4174730154143866, guid: 0948df15364e949f18704d765ac9b1ca, type: 3}
      propertyPath: m_LocalPosition.z
      value: -10
      objectReference: {fileID: 0}
    - target: {fileID: 4174730154143866, guid: 0948df15364e949f18704d765ac9b1ca, type: 3}
      propertyPath: m_LocalRotation.x
      value: -0
      objectReference: {fileID: 0}
    - target: {fileID: 4174730154143866, guid: 0948df15364e949f18704d765ac9b1ca, type: 3}
      propertyPath: m_LocalRotation.y
      value: -0
      objectReference: {fileID: 0}
    - target: {fileID: 4174730154143866, guid: 0948df15364e949f18704d765ac9b1ca, type: 3}
      propertyPath: m_LocalRotation.z
      value: -0
      objectReference: {fileID: 0}
    - target: {fileID: 4174730154143866, guid: 0948df15364e949f18704d765ac9b1ca, type: 3}
      propertyPath: m_LocalRotation.w
      value: 1
      objectReference: {fileID: 0}
    - target: {fileID: 4174730154143866, guid: 0948df15364e949f18704d765ac9b1ca, type: 3}
      propertyPath: m_RootOrder
      value: 4
      objectReference: {fileID: 0}
    m_RemovedComponents: []
  m_SourcePrefab: {fileID: 100100000, guid: 0948df15364e949f18704d765ac9b1ca, type: 3}
--- !u!1001 &1535927725
PrefabInstance:
  m_ObjectHideFlags: 0
  serializedVersion: 2
  m_Modification:
    m_TransformParent: {fileID: 0}
    m_Modifications:
    - target: {fileID: 1837268391866166, guid: 3060152e8537e4838be7f7618bfd36af, type: 3}
      propertyPath: m_Name
      value: Flock (4)
      objectReference: {fileID: 0}
    - target: {fileID: 1837268391866166, guid: 3060152e8537e4838be7f7618bfd36af, type: 3}
      propertyPath: m_IsActive
      value: 1
      objectReference: {fileID: 0}
    - target: {fileID: 4435278438621404, guid: 3060152e8537e4838be7f7618bfd36af, type: 3}
      propertyPath: m_LocalPosition.x
      value: 2
      objectReference: {fileID: 0}
    - target: {fileID: 4435278438621404, guid: 3060152e8537e4838be7f7618bfd36af, type: 3}
      propertyPath: m_LocalPosition.y
      value: 0
      objectReference: {fileID: 0}
    - target: {fileID: 4435278438621404, guid: 3060152e8537e4838be7f7618bfd36af, type: 3}
      propertyPath: m_LocalPosition.z
      value: -4
      objectReference: {fileID: 0}
    - target: {fileID: 4435278438621404, guid: 3060152e8537e4838be7f7618bfd36af, type: 3}
      propertyPath: m_LocalRotation.x
      value: -0
      objectReference: {fileID: 0}
    - target: {fileID: 4435278438621404, guid: 3060152e8537e4838be7f7618bfd36af, type: 3}
      propertyPath: m_LocalRotation.y
      value: -0
      objectReference: {fileID: 0}
    - target: {fileID: 4435278438621404, guid: 3060152e8537e4838be7f7618bfd36af, type: 3}
      propertyPath: m_LocalRotation.z
      value: -0
      objectReference: {fileID: 0}
    - target: {fileID: 4435278438621404, guid: 3060152e8537e4838be7f7618bfd36af, type: 3}
      propertyPath: m_LocalRotation.w
      value: 1
      objectReference: {fileID: 0}
    - target: {fileID: 4435278438621404, guid: 3060152e8537e4838be7f7618bfd36af, type: 3}
      propertyPath: m_RootOrder
      value: 12
      objectReference: {fileID: 0}
    - target: {fileID: 114738208757391804, guid: 3060152e8537e4838be7f7618bfd36af,
        type: 3}
      propertyPath: CohesionStrength
      value: 1.2
      objectReference: {fileID: 0}
    - target: {fileID: 114738208757391804, guid: 3060152e8537e4838be7f7618bfd36af,
        type: 3}
      propertyPath: SeparationDistance
      value: 1.5
      objectReference: {fileID: 0}
    m_RemovedComponents: []
  m_SourcePrefab: {fileID: 100100000, guid: 3060152e8537e4838be7f7618bfd36af, type: 3}
--- !u!1001 &1679557322
PrefabInstance:
  m_ObjectHideFlags: 0
  serializedVersion: 2
  m_Modification:
    m_TransformParent: {fileID: 0}
    m_Modifications:
    - target: {fileID: 4909761063975196, guid: 29772c9994d4b41e6b3b6503f1c7177a, type: 3}
      propertyPath: m_LocalPosition.x
      value: 0
      objectReference: {fileID: 0}
    - target: {fileID: 4909761063975196, guid: 29772c9994d4b41e6b3b6503f1c7177a, type: 3}
      propertyPath: m_LocalPosition.y
      value: 0
      objectReference: {fileID: 0}
    - target: {fileID: 4909761063975196, guid: 29772c9994d4b41e6b3b6503f1c7177a, type: 3}
      propertyPath: m_LocalPosition.z
      value: 0
      objectReference: {fileID: 0}
    - target: {fileID: 4909761063975196, guid: 29772c9994d4b41e6b3b6503f1c7177a, type: 3}
      propertyPath: m_LocalRotation.x
      value: 0
      objectReference: {fileID: 0}
    - target: {fileID: 4909761063975196, guid: 29772c9994d4b41e6b3b6503f1c7177a, type: 3}
      propertyPath: m_LocalRotation.y
      value: 0
      objectReference: {fileID: 0}
    - target: {fileID: 4909761063975196, guid: 29772c9994d4b41e6b3b6503f1c7177a, type: 3}
      propertyPath: m_LocalRotation.z
      value: 0
      objectReference: {fileID: 0}
    - target: {fileID: 4909761063975196, guid: 29772c9994d4b41e6b3b6503f1c7177a, type: 3}
      propertyPath: m_LocalRotation.w
      value: 1
      objectReference: {fileID: 0}
    - target: {fileID: 4909761063975196, guid: 29772c9994d4b41e6b3b6503f1c7177a, type: 3}
      propertyPath: m_RootOrder
      value: 3
      objectReference: {fileID: 0}
    - target: {fileID: 114883303565126092, guid: 29772c9994d4b41e6b3b6503f1c7177a,
        type: 3}
      propertyPath: FlockingPriority
      value: 0.5
      objectReference: {fileID: 0}
    m_RemovedComponents: []
  m_SourcePrefab: {fileID: 100100000, guid: 29772c9994d4b41e6b3b6503f1c7177a, type: 3}
--- !u!1001 &1846170377
PrefabInstance:
  m_ObjectHideFlags: 0
  serializedVersion: 2
  m_Modification:
    m_TransformParent: {fileID: 0}
    m_Modifications:
    - target: {fileID: 1416725914002790, guid: 0948df15364e949f18704d765ac9b1ca, type: 3}
      propertyPath: m_Name
      value: Marker (3)
      objectReference: {fileID: 0}
    - target: {fileID: 1416725914002790, guid: 0948df15364e949f18704d765ac9b1ca, type: 3}
      propertyPath: m_TagString
      value: Marker
      objectReference: {fileID: 0}
    - target: {fileID: 4174730154143866, guid: 0948df15364e949f18704d765ac9b1ca, type: 3}
      propertyPath: m_LocalPosition.x
      value: -10
      objectReference: {fileID: 0}
    - target: {fileID: 4174730154143866, guid: 0948df15364e949f18704d765ac9b1ca, type: 3}
      propertyPath: m_LocalPosition.y
      value: 0
      objectReference: {fileID: 0}
    - target: {fileID: 4174730154143866, guid: 0948df15364e949f18704d765ac9b1ca, type: 3}
      propertyPath: m_LocalPosition.z
      value: 10
      objectReference: {fileID: 0}
    - target: {fileID: 4174730154143866, guid: 0948df15364e949f18704d765ac9b1ca, type: 3}
      propertyPath: m_LocalRotation.x
      value: -0
      objectReference: {fileID: 0}
    - target: {fileID: 4174730154143866, guid: 0948df15364e949f18704d765ac9b1ca, type: 3}
      propertyPath: m_LocalRotation.y
      value: -0
      objectReference: {fileID: 0}
    - target: {fileID: 4174730154143866, guid: 0948df15364e949f18704d765ac9b1ca, type: 3}
      propertyPath: m_LocalRotation.z
      value: -0
      objectReference: {fileID: 0}
    - target: {fileID: 4174730154143866, guid: 0948df15364e949f18704d765ac9b1ca, type: 3}
      propertyPath: m_LocalRotation.w
      value: 1
      objectReference: {fileID: 0}
    - target: {fileID: 4174730154143866, guid: 0948df15364e949f18704d765ac9b1ca, type: 3}
      propertyPath: m_RootOrder
      value: 7
      objectReference: {fileID: 0}
    m_RemovedComponents: []
  m_SourcePrefab: {fileID: 100100000, guid: 0948df15364e949f18704d765ac9b1ca, type: 3}
--- !u!1001 &1942466431
PrefabInstance:
  m_ObjectHideFlags: 0
  serializedVersion: 2
  m_Modification:
    m_TransformParent: {fileID: 0}
    m_Modifications:
    - target: {fileID: 1416725914002790, guid: 0948df15364e949f18704d765ac9b1ca, type: 3}
      propertyPath: m_Name
      value: Marker (1)
      objectReference: {fileID: 0}
    - target: {fileID: 1416725914002790, guid: 0948df15364e949f18704d765ac9b1ca, type: 3}
      propertyPath: m_TagString
      value: Marker
      objectReference: {fileID: 0}
    - target: {fileID: 4174730154143866, guid: 0948df15364e949f18704d765ac9b1ca, type: 3}
      propertyPath: m_LocalPosition.x
      value: 10
      objectReference: {fileID: 0}
    - target: {fileID: 4174730154143866, guid: 0948df15364e949f18704d765ac9b1ca, type: 3}
      propertyPath: m_LocalPosition.y
      value: 0
      objectReference: {fileID: 0}
    - target: {fileID: 4174730154143866, guid: 0948df15364e949f18704d765ac9b1ca, type: 3}
      propertyPath: m_LocalPosition.z
      value: -10
      objectReference: {fileID: 0}
    - target: {fileID: 4174730154143866, guid: 0948df15364e949f18704d765ac9b1ca, type: 3}
      propertyPath: m_LocalRotation.x
      value: -0
      objectReference: {fileID: 0}
    - target: {fileID: 4174730154143866, guid: 0948df15364e949f18704d765ac9b1ca, type: 3}
      propertyPath: m_LocalRotation.y
      value: -0
      objectReference: {fileID: 0}
    - target: {fileID: 4174730154143866, guid: 0948df15364e949f18704d765ac9b1ca, type: 3}
      propertyPath: m_LocalRotation.z
      value: -0
      objectReference: {fileID: 0}
    - target: {fileID: 4174730154143866, guid: 0948df15364e949f18704d765ac9b1ca, type: 3}
      propertyPath: m_LocalRotation.w
      value: 1
      objectReference: {fileID: 0}
    - target: {fileID: 4174730154143866, guid: 0948df15364e949f18704d765ac9b1ca, type: 3}
      propertyPath: m_RootOrder
      value: 5
      objectReference: {fileID: 0}
    m_RemovedComponents: []
  m_SourcePrefab: {fileID: 100100000, guid: 0948df15364e949f18704d765ac9b1ca, type: 3}
--- !u!1001 &1985894283
PrefabInstance:
  m_ObjectHideFlags: 0
  serializedVersion: 2
  m_Modification:
    m_TransformParent: {fileID: 0}
    m_Modifications:
    - target: {fileID: 1837268391866166, guid: 3060152e8537e4838be7f7618bfd36af, type: 3}
      propertyPath: m_Name
      value: Flock (5)
      objectReference: {fileID: 0}
    - target: {fileID: 1837268391866166, guid: 3060152e8537e4838be7f7618bfd36af, type: 3}
      propertyPath: m_IsActive
      value: 1
      objectReference: {fileID: 0}
    - target: {fileID: 4435278438621404, guid: 3060152e8537e4838be7f7618bfd36af, type: 3}
      propertyPath: m_LocalPosition.x
      value: 0
      objectReference: {fileID: 0}
    - target: {fileID: 4435278438621404, guid: 3060152e8537e4838be7f7618bfd36af, type: 3}
      propertyPath: m_LocalPosition.y
      value: 0
      objectReference: {fileID: 0}
    - target: {fileID: 4435278438621404, guid: 3060152e8537e4838be7f7618bfd36af, type: 3}
      propertyPath: m_LocalPosition.z
      value: -4
      objectReference: {fileID: 0}
    - target: {fileID: 4435278438621404, guid: 3060152e8537e4838be7f7618bfd36af, type: 3}
      propertyPath: m_LocalRotation.x
      value: -0
      objectReference: {fileID: 0}
    - target: {fileID: 4435278438621404, guid: 3060152e8537e4838be7f7618bfd36af, type: 3}
      propertyPath: m_LocalRotation.y
      value: -0
      objectReference: {fileID: 0}
    - target: {fileID: 4435278438621404, guid: 3060152e8537e4838be7f7618bfd36af, type: 3}
      propertyPath: m_LocalRotation.z
      value: -0
      objectReference: {fileID: 0}
    - target: {fileID: 4435278438621404, guid: 3060152e8537e4838be7f7618bfd36af, type: 3}
      propertyPath: m_LocalRotation.w
      value: 1
      objectReference: {fileID: 0}
    - target: {fileID: 4435278438621404, guid: 3060152e8537e4838be7f7618bfd36af, type: 3}
      propertyPath: m_RootOrder
      value: 13
      objectReference: {fileID: 0}
    - target: {fileID: 114738208757391804, guid: 3060152e8537e4838be7f7618bfd36af,
        type: 3}
      propertyPath: CohesionStrength
      value: 1.2
      objectReference: {fileID: 0}
    - target: {fileID: 114738208757391804, guid: 3060152e8537e4838be7f7618bfd36af,
        type: 3}
      propertyPath: SeparationDistance
      value: 1.5
      objectReference: {fileID: 0}
    m_RemovedComponents: []
  m_SourcePrefab: {fileID: 100100000, guid: 3060152e8537e4838be7f7618bfd36af, type: 3}
